symbiyosys/example_sva/demo_01_impl/engine_0/trace.vcd
$version Generated by Yosys-SMTBMC $end
$timescale 1ns $end
$var integer 32 t smt_step $end
$var event 1 ! smt_clock $end
$scope module demo_01_impl $end
$var wire 1 n0 a $end
$var wire 1 n1 b $end
$var wire 1 n2 clock $end
$var wire 1 n3 reset $end
$scope module seq_a $end
$scope module _witness_ $end
$var wire 1 n4 anyseq_auto_setundef_cc_533_execute_400 $end
$upscope $end
$var wire 8 n5 ch $end
$var wire 1 n6 clock $end
$var wire 32 n7 cycle $end
$var wire 1 n8 dout $end
$var wire 4 n9 dout_reg $end
$var wire 29 n10 position $end
$upscope $end
$scope module seq_b $end
$scope module _witness_ $end
$var wire 1 n11 anyseq_auto_setundef_cc_533_execute_404 $end
$upscope $end
$var wire 8 n12 ch $end
$var wire 1 n13 clock $end
$var wire 32 n14 cycle $end
$var wire 1 n15 dout $end
$var wire 4 n16 dout_reg $end
$var wire 29 n17 position $end
$upscope $end
$scope module seq_r $end
$scope module _witness_ $end
$var wire 1 n18 anyseq_auto_setundef_cc_533_execute_396 $end
$upscope $end
$var wire 8 n19 ch $end
$var wire 1 n20 clock $end
$var wire 32 n21 cycle $end
$var wire 1 n22 dout $end
$var wire 4 n23 dout_reg $end
$var wire 29 n24 position $end
$upscope $end
$upscope $end
$enddefinitions $end
#0
1!
b00000000000000000000000000000000 t
b1 n2
b1 n6
b1 n13
b1 n20
b0 n0
b0 n1
b1 n3
b0 n4
b01011111 n5
b00000000000000000000000000000000 n7
b0 n8
b0000 n9
b00000000000000000000000010011 n10
b0 n11
b01011111 n12
b00000000000000000000000000000000 n14
b0 n15
b0000 n16
b00000000000000000000000010011 n17
b0 n18
b00101101 n19
b00000000000000000000000000000000 n21
b1 n22
b0001 n23
b00000000000000000000000010011 n24
#5
b0 n2
b0 n6
b0 n13
b0 n20
#10
1!
b00000000000000000000000000000001 t
b1 n2
b1 n6
b1 n13
b1 n20
b1 n0
b0 n1
b0 n3
b0 n4
b00101101 n5
b00000000000000000000000000000001 n7
b1 n8
b0001 n9
b00000000000000000000000010010 n10
b0 n11
b01011111 n12
b00000000000000000000000000000001 n14
b0 n15
b0000 n16
b00000000000000000000000010010 n17
b0 n18
b01011111 n19
b00000000000000000000000000000001 n21
b0 n22
b0000 n23
b00000000000000000000000010010 n24
#15
b0 n2
b0 n6
b0 n13
b0 n20
#20
1!
b00000000000000000000000000000010 t
b1 n2
b1 n6
b1 n13
b1 n20
b1 n0
b1 n1
b0 n3
b0 n4
b00101101 n5
b00000000000000000000000000000010 n7
b1 n8
b0001 n9
b00000000000000000000000010001 n10
b0 n11
b00101101 n12
b00000000000000000000000000000010 n14
b1 n15
b0001 n16
b00000000000000000000000010001 n17
b0 n18
b01011111 n19
b00000000000000000000000000000010 n21
b0 n22
b0000 n23
b00000000000000000000000010001 n24
#25
b0 n2
b0 n6
b0 n13
b0 n20
#30
1!
b00000000000000000000000000000011 t
b1 n2
b1 n6
b1 n13
b1 n20
b0 n0
b1 n1
b0 n3
b0 n4
b01011111 n5
b00000000000000000000000000000011 n7
b0 n8
b0000 n9
b00000000000000000000000010000 n10
b0 n11
b00101101 n12
b00000000000000000000000000000011 n14
b1 n15
b0001 n16
b00000000000000000000000010000 n17
b0 n18
b01011111 n19
b00000000000000000000000000000011 n21
b0 n22
b0000 n23
b00000000000000000000000010000 n24
#35
b0 n2
b0 n6
b0 n13
b0 n20
#40
1!
b00000000000000000000000000000100 t
b1 n2
b1 n6
b1 n13
b1 n20
b0 n0
b0 n1
b0 n3
b0 n4
b01011111 n5
b00000000000000000000000000000100 n7
b0 n8
b0000 n9
b00000000000000000000000001111 n10
b0 n11
b01011111 n12
b00000000000000000000000000000100 n14
b0 n15
b0000 n16
b00000000000000000000000001111 n17
b0 n18
b01011111 n19
b00000000000000000000000000000100 n21
b0 n22
b0000 n23
b00000000000000000000000001111 n24
#45
b0 n2
b0 n6
b0 n13
b0 n20
#50
1!
b00000000000000000000000000000101 t
b1 n2
b1 n6
b1 n13
b1 n20
b0 n0
b0 n1
b0 n3
b0 n4
b01011111 n5
b00000000000000000000000000000101 n7
b0 n8
b0000 n9
b00000000000000000000000001110 n10
b0 n11
b01011111 n12
b00000000000000000000000000000101 n14
b0 n15
b0000 n16
b00000000000000000000000001110 n17
b0 n18
b01011111 n19
b00000000000000000000000000000101 n21
b0 n22
b0000 n23
b00000000000000000000000001110 n24
#55
b0 n2
b0 n6
b0 n13
b0 n20
#60
1!
b00000000000000000000000000000110 t
b1 n2
b1 n6
b1 n13
b1 n20
b1 n0
b1 n1
b1 n3
b0 n4
b00101101 n5
b00000000000000000000000000000110 n7
b1 n8
b0001 n9
b00000000000000000000000001101 n10
b0 n11
b00101101 n12
b00000000000000000000000000000110 n14
b1 n15
b0001 n16
b00000000000000000000000001101 n17
b0 n18
b00101101 n19
b00000000000000000000000000000110 n21
b1 n22
b0001 n23
b00000000000000000000000001101 n24
#65
b0 n2
b0 n6
b0 n13
b0 n20
#70
1!
b00000000000000000000000000000111 t
b1 n2
b1 n6
b1 n13
b1 n20
b0 n0
b0 n1
b0 n3
b0 n4
b01011111 n5
b00000000000000000000000000000111 n7
b0 n8
b0000 n9
b00000000000000000000000001100 n10
b0 n11
b01011111 n12
b00000000000000000000000000000111 n14
b0 n15
b0000 n16
b00000000000000000000000001100 n17
b0 n18
b01011111 n19
b00000000000000000000000000000111 n21
b0 n22
b0000 n23
b00000000000000000000000001100 n24
#75
b0 n2
b0 n6
b0 n13
b0 n20
#80
1!
b00000000000000000000000000001000 t
b1 n2
b1 n6
b1 n13
b1 n20
b0 n0
b0 n1
b0 n3
b0 n4
b01011111 n5
b00000000000000000000000000001000 n7
b0 n8
b0000 n9
b00000000000000000000000001011 n10
b0 n11
b01011111 n12
b00000000000000000000000000001000 n14
b0 n15
b0000 n16
b00000000000000000000000001011 n17
b0 n18
b01011111 n19
b00000000000000000000000000001000 n21
b0 n22
b0000 n23
b00000000000000000000000001011 n24
#85
b0 n2
b0 n6
b0 n13
b0 n20
#90
1!
b00000000000000000000000000001001 t
b1 n2
b1 n6
b1 n13
b1 n20
b0 n0
b0 n1
b0 n3
b0 n4
b01011111 n5
b00000000000000000000000000001001 n7
b0 n8
b0000 n9
b00000000000000000000000001010 n10
b0 n11
b01011111 n12
b00000000000000000000000000001001 n14
b0 n15
b0000 n16
b00000000000000000000000001010 n17
b0 n18
b01011111 n19
b00000000000000000000000000001001 n21
b0 n22
b0000 n23
b00000000000000000000000001010 n24
#95
b0 n2
b0 n6
b0 n13
b0 n20
#100
1!
b00000000000000000000000000001010 t
b1 n2
b1 n6
b1 n13
b1 n20
b1 n0
b0 n1
b0 n3
b0 n4
b00101101 n5
b00000000000000000000000000001010 n7
b1 n8
b0001 n9
b00000000000000000000000001001 n10
b0 n11
b01011111 n12
b00000000000000000000000000001010 n14
b0 n15
b0000 n16
b00000000000000000000000001001 n17
b0 n18
b01011111 n19
b00000000000000000000000000001010 n21
b0 n22
b0000 n23
b00000000000000000000000001001 n24
#105
b0 n2
b0 n6
b0 n13
b0 n20
#110
1!
b00000000000000000000000000001011 t
b1 n2
b1 n6
b1 n13
b1 n20
b0 n0
b0 n1
b1 n3
b0 n4
b01011111 n5
b00000000000000000000000000001011 n7
b0 n8
b0000 n9
b00000000000000000000000001000 n10
b0 n11
b01011111 n12
b00000000000000000000000000001011 n14
b0 n15
b0000 n16
b00000000000000000000000001000 n17
b0 n18
b00101101 n19
b00000000000000000000000000001011 n21
b1 n22
b0001 n23
b00000000000000000000000001000 n24
#115
b0 n2
b0 n6
b0 n13
b0 n20
#120
1!
b00000000000000000000000000001100 t
b1 n2
b1 n6
b1 n13
b1 n20
b0 n0
b0 n1
b0 n3
b0 n4
b01011111 n5
b00000000000000000000000000001100 n7
b0 n8
b0000 n9
b00000000000000000000000000111 n10
b0 n11
b01011111 n12
b00000000000000000000000000001100 n14
b0 n15
b0000 n16
b00000000000000000000000000111 n17
b0 n18
b01011111 n19
b00000000000000000000000000001100 n21
b0 n22
b0000 n23
b00000000000000000000000000111 n24
#125
b0 n2
b0 n6
b0 n13
b0 n20
#130
1!
b00000000000000000000000000001101 t
b1 n2
b1 n6
b1 n13
b1 n20
b0 n0
b0 n1
b0 n3
b0 n4
b01011111 n5
b00000000000000000000000000001101 n7
b0 n8
b0000 n9
b00000000000000000000000000110 n10
b0 n11
b01011111 n12
b00000000000000000000000000001101 n14
b0 n15
b0000 n16
b00000000000000000000000000110 n17
b0 n18
b01011111 n19
b00000000000000000000000000001101 n21
b0 n22
b0000 n23
b00000000000000000000000000110 n24
#135
b0 n2
b0 n6
b0 n13
b0 n20
#140
1!
b00000000000000000000000000001110 t
b1 n2
b1 n6
b1 n13
b1 n20
b0 n0
b0 n1
b0 n3
b0 n4
b01011111 n5
b00000000000000000000000000001110 n7
b0 n8
b0000 n9
b00000000000000000000000000101 n10
b0 n11
b01011111 n12
b00000000000000000000000000001110 n14
b0 n15
b0000 n16
b00000000000000000000000000101 n17
b0 n18
b01011111 n19
b00000000000000000000000000001110 n21
b0 n22
b0000 n23
b00000000000000000000000000101 n24
#145
b0 n2
b0 n6
b0 n13
b0 n20
#150
1!
b00000000000000000000000000001111 t
b1 n2
b1 n6
b1 n13
b1 n20
b0 n0
b0 n1
b0 n3
b0 n4
b01011111 n5
b00000000000000000000000000001111 n7
b0 n8
b0000 n9
b00000000000000000000000000100 n10
b0 n11
b01011111 n12
b00000000000000000000000000001111 n14
b0 n15
b0000 n16
b00000000000000000000000000100 n17
b0 n18
b01011111 n19
b00000000000000000000000000001111 n21
b0 n22
b0000 n23
b00000000000000000000000000100 n24
#155
b0 n2
b0 n6
b0 n13
b0 n20
#160
1!
b00000000000000000000000000010000 t
b1 n2
b1 n6
b1 n13
b1 n20
b0 n0
b0 n1
b0 n3
b0 n4
b01011111 n5
b00000000000000000000000000010000 n7
b0 n8
b0000 n9
b00000000000000000000000000011 n10
b0 n11
b01011111 n12
b00000000000000000000000000010000 n14
b0 n15
b0000 n16
b00000000000000000000000000011 n17
b0 n18
b01011111 n19
b00000000000000000000000000010000 n21
b0 n22
b0000 n23
b00000000000000000000000000011 n24
#165
b0 n2
b0 n6
b0 n13
b0 n20
#170
1!
b00000000000000000000000000010001 t
b1 n2
b1 n6
b1 n13
b1 n20
b1 n0
b1 n1
b0 n3
b0 n4
b00101101 n5
b00000000000000000000000000010001 n7
b1 n8
b0001 n9
b00000000000000000000000000010 n10
b0 n11
b00101101 n12
b00000000000000000000000000010001 n14
b1 n15
b0001 n16
b00000000000000000000000000010 n17
b0 n18
b01011111 n19
b00000000000000000000000000010001 n21
b0 n22
b0000 n23
b00000000000000000000000000010 n24
#175
b0 n2
b0 n6
b0 n13
b0 n20
#180
1!
b00000000000000000000000000010010 t
b1 n2
b1 n6
b1 n13
b1 n20
b0 n0
b0 n1
b0 n3
b0 n4
b01011111 n5
b00000000000000000000000000010010 n7
b0 n8
b0000 n9
b00000000000000000000000000001 n10
b0 n11
b01011111 n12
b00000000000000000000000000010010 n14
b0 n15
b0000 n16
b00000000000000000000000000001 n17
b0 n18
b01011111 n19
b00000000000000000000000000010010 n21
b0 n22
b0000 n23
b00000000000000000000000000001 n24
#185
b0 n2
b0 n6
b0 n13
b0 n20
#190
1!
b00000000000000000000000000010011 t
b1 n2
b1 n6
b1 n13
b1 n20
b0 n0
b0 n1
b0 n3
b0 n4
b01011111 n5
b00000000000000000000000000010011 n7
b0 n8
b0000 n9
b00000000000000000000000000000 n10
b0 n11
b01011111 n12
b00000000000000000000000000010011 n14
b0 n15
b0000 n16
b00000000000000000000000000000 n17
b0 n18
b01011111 n19
b00000000000000000000000000010011 n21
b0 n22
b0000 n23
b00000000000000000000000000000 n24
#195
b0 n2
b0 n6
b0 n13
b0 n20
#200
1!
b00000000000000000000000000010100 t
b1 n2
b1 n6
b1 n13
b1 n20
